{
  "data": [
    {
      "id": "id5",
      "body": "TASK Написать тезисы по Людвигу"
    },
    {
      "id": "id4",
      "body": "TASK Заполнить ретроспективу"
    },
    {
      "id": "id3",
      "body": "TASK Выучить английский"
    },
    {
      "id": "id2",
      "body": "TASK Безмозглый широковещательный цифровой передатчик сужающихся экспонент."
    },
    {
      "id": "id1",
      "body": "TASK Флегматичная эта верблюдица жует у подъезда засыхающий горький шиповник."
    }
  ]
}